('C:\\Users\\clperret\\OneDrive - Eiffage\\Documents\\Travaux\\Python\\PDF '
 'antennes\\PDF Downloader\\build\\PDF_Downloader\\PDF_Downloader.pkg',
 {'BINARY': True,
  'DATA': True,
  'EXECUTABLE': True,
  'EXTENSION': True,
  'PYMODULE': True,
  'PYSOURCE': True,
  'PYZ': False,
  'SPLASH': True},
 [('PYZ-00.pyz',
   'C:\\Users\\clperret\\OneDrive - Eiffage\\Documents\\Travaux\\Python\\PDF '
   'antennes\\PDF Downloader\\build\\PDF_Downloader\\PYZ-00.pyz',
   'PYZ'),
  ('struct',
   'C:\\Users\\clperret\\OneDrive - Eiffage\\Documents\\Travaux\\Python\\PDF '
   'antennes\\PDF Downloader\\build\\PDF_Downloader\\localpycs\\struct.pyc',
   'PYMODULE'),
  ('pyimod01_archive',
   'C:\\Users\\clperret\\OneDrive - Eiffage\\Documents\\Travaux\\Python\\PDF '
   'antennes\\PDF '
   'Downloader\\build\\PDF_Downloader\\localpycs\\pyimod01_archive.pyc',
   'PYMODULE'),
  ('pyimod02_importers',
   'C:\\Users\\clperret\\OneDrive - Eiffage\\Documents\\Travaux\\Python\\PDF '
   'antennes\\PDF '
   'Downloader\\build\\PDF_Downloader\\localpycs\\pyimod02_importers.pyc',
   'PYMODULE'),
  ('pyimod03_ctypes',
   'C:\\Users\\clperret\\OneDrive - Eiffage\\Documents\\Travaux\\Python\\PDF '
   'antennes\\PDF '
   'Downloader\\build\\PDF_Downloader\\localpycs\\pyimod03_ctypes.pyc',
   'PYMODULE'),
  ('pyimod04_pywin32',
   'C:\\Users\\clperret\\OneDrive - Eiffage\\Documents\\Travaux\\Python\\PDF '
   'antennes\\PDF '
   'Downloader\\build\\PDF_Downloader\\localpycs\\pyimod04_pywin32.pyc',
   'PYMODULE'),
  ('pyiboot01_bootstrap',
   'C:\\Users\\clperret\\AppData\\Local\\Programs\\Python\\Python311\\Lib\\site-packages\\PyInstaller\\loader\\pyiboot01_bootstrap.py',
   'PYSOURCE'),
  ('pyi_rth_inspect',
   'C:\\Users\\clperret\\AppData\\Local\\Programs\\Python\\Python311\\Lib\\site-packages\\PyInstaller\\hooks\\rthooks\\pyi_rth_inspect.py',
   'PYSOURCE'),
  ('PDF_Downloader',
   'C:\\Users\\clperret\\OneDrive - Eiffage\\Documents\\Travaux\\Python\\PDF '
   'antennes\\PDF Downloader\\PDF_Downloader.py',
   'PYSOURCE')],
 True,
 False,
 False,
 [],
 None,
 None,
 None)
